…
Creating a dataframe and assigning it to a new object, where we summarise monthly returns since 2017-01-01 for each of the stocks and SPY; min, max, median, mean, SD.

options(width = 150)
summarise_monthly_returns <- myStocks_returns_monthly %>%
  filter(date >= "2017-01-01")
 
summarise(summarise_monthly_returns, "Date" = date, "M returns" = round(monthly_returns,4),
          "Min m return" = min(monthly_returns),
          "Max m return" = max(monthly_returns),
          "Median m return" = round(median(monthly_returns),4),
          "Av m return" = round(mean(monthly_returns),4),
          "St. dev. of m returns" = sd(monthly_returns))

## # A tibble: 1,338 x 8
## # Groups:   symbol [31]
##    symbol Date       `M returns` `Min m return` `Max m return` `Median m return` `Av m return` `St. dev. of m returns`
##    <chr>  <date>           <dbl>          <dbl>          <dbl>             <dbl>         <dbl>                   <dbl>
##  1 AAPL   2017-01-31      0.0477         -0.181          0.200            0.0513        0.0387                  0.0873
##  2 AAPL   2017-02-28      0.134          -0.181          0.200            0.0513        0.0387                  0.0873
##  3 AAPL   2017-03-31      0.0487         -0.181          0.200            0.0513        0.0387                  0.0873
##  4 AAPL   2017-04-28     -0.0001         -0.181          0.200            0.0513        0.0387                  0.0873
##  5 AAPL   2017-05-31      0.0678         -0.181          0.200            0.0513        0.0387                  0.0873
##  6 AAPL   2017-06-30     -0.0572         -0.181          0.200            0.0513        0.0387                  0.0873
##  7 AAPL   2017-07-31      0.0327         -0.181          0.200            0.0513        0.0387                  0.0873
##  8 AAPL   2017-08-31      0.107          -0.181          0.200            0.0513        0.0387                  0.0873
##  9 AAPL   2017-09-29     -0.0602         -0.181          0.200            0.0513        0.0387                  0.0873
## 10 AAPL   2017-10-31      0.0968         -0.181          0.200            0.0513        0.0387                  0.0873
## # … with 1,328 more rows

#Using list to neatly summarise the information
summarise_monthly_returns_2 <- summarise_monthly_returns %>%
  group_by(symbol) %>%
  summarise("Min" = min(monthly_returns),
            "Max" = max(monthly_returns),
            "Median" = round(median(monthly_returns),4),
            "Av." = round(mean(monthly_returns),4),
            "SD" = sd(monthly_returns))

monthly_returns_list_summary <- list(summarise_monthly_returns, summarise_monthly_returns_2)
monthly_returns_list_summary

## [[1]]
## # A tibble: 1,338 x 3
## # Groups:   symbol [31]
##    symbol date       monthly_returns
##    <chr>  <date>               <dbl>
##  1 MMM    2017-01-31         -0.0210
##  2 MMM    2017-02-28          0.0729
##  3 MMM    2017-03-31          0.0267
##  4 MMM    2017-04-28          0.0235
##  5 MMM    2017-05-31          0.0504
##  6 MMM    2017-06-30          0.0182
##  7 MMM    2017-07-31         -0.0337
##  8 MMM    2017-08-31          0.0215
##  9 MMM    2017-09-29          0.0273
## 10 MMM    2017-10-31          0.0967
## # … with 1,328 more rows
## 
## [[2]]
## # A tibble: 31 x 6
##    symbol    Min    Max  Median     Av.     SD
##    <chr>   <dbl>  <dbl>   <dbl>   <dbl>  <dbl>
##  1 AAPL   -0.181 0.200   0.0513  0.0387 0.0873
##  2 AMGN   -0.104 0.180   0.0235  0.0171 0.0664
##  3 AXP    -0.221 0.0988  0.015   0.0109 0.0639
##  4 BA     -0.458 0.257   0.025   0.0124 0.120 
##  5 CAT    -0.199 0.138   0.0318  0.0151 0.0742
##  6 CRM    -0.155 0.391   0.0403  0.035  0.0850
##  7 CSCO   -0.155 0.130   0.0185  0.0125 0.0673
##  8 CVX    -0.224 0.270   0.0017 -0.0009 0.0748
##  9 DIS    -0.179 0.234  -0.0021  0.0097 0.0750
## 10 DOW    -0.276 0.255   0.0456  0.009  0.128 
## # … with 21 more rows
…
